\relax 
\providecommand \oddpage@label [2]{}
\@writefile{toc}{\contentsline {section}{\numberline {1}The Yelp Challenge Dataset}{2}}
\@writefile{toc}{\contentsline {subsection}{\numberline {1.1}Business Data Overview}{2}}
\@writefile{lof}{\contentsline {figure}{\numberline {1}{\ignorespaces Number of Yelp businesses per state (Top 10)\relax }}{2}}
\providecommand*\caption@xref[2]{\@setref\relax\@undefined{#1}}
\newlabel{fig:state_business_hist}{{1}{2}}
\@writefile{lof}{\contentsline {figure}{\numberline {2}{\ignorespaces Price ranges.\relax }}{3}}
\newlabel{fig:priceranges}{{2}{3}}
\@writefile{lof}{\contentsline {figure}{\numberline {3}{\ignorespaces Wifi availability.\relax }}{3}}
\newlabel{fig:wifi}{{3}{3}}
\@writefile{lof}{\contentsline {figure}{\numberline {4}{\ignorespaces Take-out availability.\relax }}{3}}
\newlabel{fig:wifi}{{4}{3}}
\@writefile{toc}{\contentsline {section}{\numberline {2}Comparing Review Score Distributions for NV, NC and WI}{4}}
\@writefile{lof}{\contentsline {figure}{\numberline {5}{\ignorespaces Empirical distributions of stars given in reviews in NV, NC and WI\relax }}{4}}
\newlabel{fig:starshist}{{5}{4}}
\@writefile{lot}{\contentsline {table}{\numberline {1}{\ignorespaces Star rating statistical properties across NV, NC and WI\relax }}{4}}
\newlabel{tab:totstats}{{1}{4}}
\@writefile{toc}{\contentsline {subsection}{\numberline {2.1}Attempting a distributional fit for NV star rating data}{5}}
\@writefile{lof}{\contentsline {figure}{\numberline {6}{\ignorespaces Distributional fits for NV star rating data\relax }}{5}}
\newlabel{fig:expfamfit}{{6}{5}}
\@writefile{lof}{\contentsline {figure}{\numberline {7}{\ignorespaces Mirror simulation for NV star ratings\relax }}{6}}
\newlabel{fig:mirrorNV}{{7}{6}}
\@writefile{lof}{\contentsline {figure}{\numberline {8}{\ignorespaces Distributional fits with mirror simulation for NV star ratings\relax }}{6}}
\newlabel{fig:nvalldists}{{8}{6}}
\@writefile{toc}{\contentsline {section}{\numberline {3}Comparing `Beauty \& Spas' Businesses across NV, NC and WI}{7}}
\@writefile{lof}{\contentsline {figure}{\numberline {9}{\ignorespaces Beauty \& Spas star ratings across NV, NC and WI\relax }}{7}}
\newlabel{fig:BShists}{{9}{7}}
\@writefile{lot}{\contentsline {table}{\numberline {2}{\ignorespaces `Spa and Beauty' star ratings' main statistical properties across NV, NC and WI.\relax }}{8}}
\newlabel{tab:BSstats}{{2}{8}}
